{'python version': '3.8.16 (default, Jan 17 2023, 23:13:24) \n[GCC 11.2.0]', 'OS': 'Linux', 'pytorch': '1.10.1+cu113'}
{'MODEL': 'Learningq_612_1e-4', 'EPOCH_SETTING': '15', 'NAME': 'Learningq_612_1e-4_fine9_e4_15', 'TRAIN_BATCH_SIZE': 1, 'VALID_BATCH_SIZE': 1, 'TEST_BATCH_SIZE': 1, 'TRAIN_EPOCHS': 9, 'VAL_EPOCHS': 1, 'LEARNING_RATE': 0.0001, 'MAX_SOURCE_TEXT_LENGTH': 512, 'MAX_TARGET_TEXT_LENGTH': 64, 'SEED': 42, 'type': 'prefix', 'mode': 'test', 'input_dim': '768*20', 'hidden': '800', 'output_dim': '768*100', 'DESC': 'Test'}

1 0 tensor(3.5911, device='cuda:0', grad_fn=<NllLossBackward0>)

1 100 tensor(3.4713, device='cuda:0', grad_fn=<NllLossBackward0>)

1 200 tensor(3.0001, device='cuda:0', grad_fn=<NllLossBackward0>)

1 300 tensor(3.6023, device='cuda:0', grad_fn=<NllLossBackward0>)

1 400 tensor(2.0370, device='cuda:0', grad_fn=<NllLossBackward0>)

2 0 tensor(2.7569, device='cuda:0', grad_fn=<NllLossBackward0>)

2 100 tensor(2.8540, device='cuda:0', grad_fn=<NllLossBackward0>)

2 200 tensor(4.6426, device='cuda:0', grad_fn=<NllLossBackward0>)

2 300 tensor(3.9135, device='cuda:0', grad_fn=<NllLossBackward0>)

2 400 tensor(3.8847, device='cuda:0', grad_fn=<NllLossBackward0>)

3 0 tensor(2.6438, device='cuda:0', grad_fn=<NllLossBackward0>)

3 100 tensor(2.9081, device='cuda:0', grad_fn=<NllLossBackward0>)

3 200 tensor(2.3396, device='cuda:0', grad_fn=<NllLossBackward0>)

3 300 tensor(3.2246, device='cuda:0', grad_fn=<NllLossBackward0>)

3 400 tensor(2.4551, device='cuda:0', grad_fn=<NllLossBackward0>)

4 0 tensor(2.0424, device='cuda:0', grad_fn=<NllLossBackward0>)

4 100 tensor(3.0255, device='cuda:0', grad_fn=<NllLossBackward0>)

4 200 tensor(2.8589, device='cuda:0', grad_fn=<NllLossBackward0>)

4 300 tensor(2.7345, device='cuda:0', grad_fn=<NllLossBackward0>)

4 400 tensor(1.9261, device='cuda:0', grad_fn=<NllLossBackward0>)

5 0 tensor(1.3977, device='cuda:0', grad_fn=<NllLossBackward0>)

5 100 tensor(1.6739, device='cuda:0', grad_fn=<NllLossBackward0>)

5 200 tensor(2.1055, device='cuda:0', grad_fn=<NllLossBackward0>)

5 300 tensor(1.5667, device='cuda:0', grad_fn=<NllLossBackward0>)

5 400 tensor(1.7056, device='cuda:0', grad_fn=<NllLossBackward0>)

6 0 tensor(1.5764, device='cuda:0', grad_fn=<NllLossBackward0>)

6 100 tensor(0.6543, device='cuda:0', grad_fn=<NllLossBackward0>)

6 200 tensor(0.8816, device='cuda:0', grad_fn=<NllLossBackward0>)

6 300 tensor(0.3994, device='cuda:0', grad_fn=<NllLossBackward0>)

6 400 tensor(1.3655, device='cuda:0', grad_fn=<NllLossBackward0>)

7 0 tensor(0.9835, device='cuda:0', grad_fn=<NllLossBackward0>)

7 100 tensor(2.0413, device='cuda:0', grad_fn=<NllLossBackward0>)

7 200 tensor(1.7685, device='cuda:0', grad_fn=<NllLossBackward0>)

7 300 tensor(0.3493, device='cuda:0', grad_fn=<NllLossBackward0>)

7 400 tensor(0.9995, device='cuda:0', grad_fn=<NllLossBackward0>)

8 0 tensor(1.7663, device='cuda:0', grad_fn=<NllLossBackward0>)

8 100 tensor(2.4601, device='cuda:0', grad_fn=<NllLossBackward0>)

8 200 tensor(1.5009, device='cuda:0', grad_fn=<NllLossBackward0>)

8 300 tensor(1.4556, device='cuda:0', grad_fn=<NllLossBackward0>)

8 400 tensor(0.2958, device='cuda:0', grad_fn=<NllLossBackward0>)

9 0 tensor(0.4743, device='cuda:0', grad_fn=<NllLossBackward0>)

9 100 tensor(0.6336, device='cuda:0', grad_fn=<NllLossBackward0>)

9 200 tensor(0.2522, device='cuda:0', grad_fn=<NllLossBackward0>)

9 300 tensor(0.1708, device='cuda:0', grad_fn=<NllLossBackward0>)

9 400 tensor(1.3698, device='cuda:0', grad_fn=<NllLossBackward0>)

ROUGE Scores: (test)
Rouge_1: {'precision': 0.17033934128403275, 'recall': 0.13633071527397453, 'fmeasure': 0.1392285917721499}
Rouge_2: {'precision': 0.012138157809633947, 'recall': 0.008495619366581456, 'fmeasure': 0.009709335016194271}
Rouge_L: {'precision': 0.13700157676454036, 'recall': 0.11213100523899072, 'fmeasure': 0.11369910993555192}

BLEU Scores: (test)
{'bleu-1': 0.07613881351728666, 'bleu-2': 0.0023866241716725203, 'bleu-3': 1.694144835750723e-309, 'bleu-4': 1.1438440052795227e-308, 'bleu': 2.0609930761959228e-156, 'bleu-corp-1': 0.07613881351728666, 'bleu-corp-2': 0.0023866241716725203, 'bleu-corp-3': 1.694144835750723e-309, 'bleu-corp-4': 1.1438440052795227e-308, 'bleu-corp': 2.0609930761959228e-156}

METEOR Scores: (test)
{'meteor': 0.11023309125488055}

GLEU Scores: (test)
{'gleu-1': 0.08447016480851138, 'gleu-2': 0.002541393916056989, 'gleu-3': 0.0, 'gleu-4': 0.0, 'gleu': 0.023732100032631813, 'gleu-corp-1': 0.08447016480851138, 'gleu-corp-2': 0.002541393916056989, 'gleu-corp-3': 0.0, 'gleu-corp-4': 0.0, 'gleu-corp': 0.023732100032631813}
