{'MODEL': 'IR_small_1024_1e-5', 'NAME': '', 'LAST_EPOCH': 25, 'TRAIN_BATCH_SIZE': 9, 'VALID_BATCH_SIZE': 9, 'TEST_BATCH_SIZE': 10, 'QC_TRAIN_EPOCHS': 5, 'IR_TRAIN_EPOCHS': 5, 'VAL_EPOCHS': 1, 'LEARNING_RATE': 0.0001, 'MAX_SOURCE_TEXT_LENGTH': 1024, 'MAX_TARGET_TEXT_LENGTH': 64, 'SEED': 42, 'QC_DATASETS': [], 'IR_DATASETS': ['IR-small'], 'DESC': 'Test', 'TYPE': 'IR'}

ROUGE Scores: (IR)
Rouge_1: {'precision': 0.364408403057265, 'recall': 0.3169572711983035, 'fmeasure': 0.32339697376531473}
Rouge_2: {'precision': 0.17008235988093642, 'recall': 0.14808206461479984, 'fmeasure': 0.15035660274084853}
Rouge_L: {'precision': 0.32499865222104696, 'recall': 0.28111347753358085, 'fmeasure': 0.2876026969280846}

BLEU Scores: (IR)
{'bleu-1': 0.2037865347983981, 'bleu-2': 0.09638315917757993, 'bleu-3': 0.047965141814594214, 'bleu-4': 0.04334938658478966, 'bleu': 0.050994173240742305, 'bleu-corp-1': 0.2037865347983981, 'bleu-corp-2': 0.09638315917757993, 'bleu-corp-3': 0.047965141814594214, 'bleu-corp-4': 0.04334938658478966, 'bleu-corp': 0.050994173240742305}

METEOR Scores: (IR)
{'meteor': 0.30064815910417836}

GLEU Scores: (IR)
{'gleu-1': 0.21685778210774087, 'gleu-2': 0.0984155190166068, 'gleu-3': 0.060499977086707145, 'gleu-4': 0.04170081653456438, 'gleu': 0.11578981823488867, 'gleu-corp-1': 0.21685778210774087, 'gleu-corp-2': 0.0984155190166068, 'gleu-corp-3': 0.060499977086707145, 'gleu-corp-4': 0.04170081653456438, 'gleu-corp': 0.11578981823488867}
