{'MODEL': 'IR_small_512_1e-4', 'NAME': '', 'LAST_EPOCH': 5, 'TRAIN_BATCH_SIZE': 12, 'VALID_BATCH_SIZE': 12, 'TEST_BATCH_SIZE': 12, 'QC_TRAIN_EPOCHS': 25, 'IR_TRAIN_EPOCHS': 25, 'VAL_EPOCHS': 1, 'LEARNING_RATE': 0.0001, 'MAX_SOURCE_TEXT_LENGTH': 512, 'MAX_TARGET_TEXT_LENGTH': 64, 'SEED': 42, 'QC_DATASETS': [], 'IR_DATASETS': ['IR-small'], 'DESC': 'Test', 'TYPE': 'IR'}

ROUGE Scores: (IR)
Rouge_1: {'precision': 0.3691238701920679, 'recall': 0.3297299201376832, 'fmeasure': 0.3299131152273112}
Rouge_2: {'precision': 0.17910731877272307, 'recall': 0.16018301033382526, 'fmeasure': 0.15927503569311638}
Rouge_L: {'precision': 0.3332251645440848, 'recall': 0.2969649327450542, 'fmeasure': 0.2975375581375273}

BLEU Scores: (IR)
{'bleu-1': 0.21020534320250753, 'bleu-2': 0.10474692473719709, 'bleu-3': 0.05506991854223336, 'bleu-4': 0.05113488230707694, 'bleu': 0.06016205570140227, 'bleu-corp-1': 0.21020534320250753, 'bleu-corp-2': 0.10474692473719709, 'bleu-corp-3': 0.05506991854223336, 'bleu-corp-4': 0.05113488230707694, 'bleu-corp': 0.06016205570140227}

METEOR Scores: (IR)
{'meteor': 0.30641736303458006}

GLEU Scores: (IR)
{'gleu-1': 0.22375823123234156, 'gleu-2': 0.10702343410796501, 'gleu-3': 0.0694324358750071, 'gleu-4': 0.0496996467584703, 'gleu': 0.12336574037592776, 'gleu-corp-1': 0.22375823123234156, 'gleu-corp-2': 0.10702343410796501, 'gleu-corp-3': 0.0694324358750071, 'gleu-corp-4': 0.0496996467584703, 'gleu-corp': 0.12336574037592776}
