{'MODEL': 'IR_small_1024_1e-5', 'NAME': '', 'LAST_EPOCH': 5, 'TRAIN_BATCH_SIZE': 9, 'VALID_BATCH_SIZE': 9, 'TEST_BATCH_SIZE': 10, 'QC_TRAIN_EPOCHS': 5, 'IR_TRAIN_EPOCHS': 5, 'VAL_EPOCHS': 1, 'LEARNING_RATE': 0.0001, 'MAX_SOURCE_TEXT_LENGTH': 1024, 'MAX_TARGET_TEXT_LENGTH': 64, 'SEED': 42, 'QC_DATASETS': [], 'IR_DATASETS': ['IR-small'], 'DESC': 'Test', 'TYPE': 'IR'}

ROUGE Scores: (IR)
Rouge_1: {'precision': 0.2868204040205545, 'recall': 0.2582943860654084, 'fmeasure': 0.25416382328001835}
Rouge_2: {'precision': 0.11829091357227128, 'recall': 0.10574666976598841, 'fmeasure': 0.10206621502669563}
Rouge_L: {'precision': 0.25469414269055857, 'recall': 0.2272679662937692, 'fmeasure': 0.22418665509662397}

BLEU Scores: (IR)
{'bleu-1': 0.1515274921798047, 'bleu-2': 0.059873474773187524, 'bleu-3': 0.026840753959012587, 'bleu-4': 0.02591978998506786, 'bleu': 0.02980292260201205, 'bleu-corp-1': 0.1515274921798047, 'bleu-corp-2': 0.059873474773187524, 'bleu-corp-3': 0.026840753959012587, 'bleu-corp-4': 0.02591978998506786, 'bleu-corp': 0.02980292260201205}

METEOR Scores: (IR)
{'meteor': 0.2409947942163735}

GLEU Scores: (IR)
{'gleu-1': 0.16334691755814293, 'gleu-2': 0.062063199462184894, 'gleu-3': 0.03576929598444918, 'gleu-4': 0.024641918368940415, 'gleu': 0.079600873847545, 'gleu-corp-1': 0.16334691755814293, 'gleu-corp-2': 0.062063199462184894, 'gleu-corp-3': 0.03576929598444918, 'gleu-corp-4': 0.024641918368940415, 'gleu-corp': 0.079600873847545}
