{'MODEL': 'IR_small_1024_1e-4', 'NAME': '', 'LAST_EPOCH': 5, 'TRAIN_BATCH_SIZE': 9, 'VALID_BATCH_SIZE': 9, 'TEST_BATCH_SIZE': 10, 'QC_TRAIN_EPOCHS': 5, 'IR_TRAIN_EPOCHS': 5, 'VAL_EPOCHS': 1, 'LEARNING_RATE': 0.0001, 'MAX_SOURCE_TEXT_LENGTH': 1024, 'MAX_TARGET_TEXT_LENGTH': 64, 'SEED': 42, 'QC_DATASETS': [], 'IR_DATASETS': ['IR-small'], 'DESC': 'Test', 'TYPE': 'IR'}

ROUGE Scores: (IR)
Rouge_1: {'precision': 0.4421359773900432, 'recall': 0.3739566042497027, 'fmeasure': 0.3904197286324709}
Rouge_2: {'precision': 0.2612775470232731, 'recall': 0.22476396666662551, 'fmeasure': 0.23407633798538516}
Rouge_L: {'precision': 0.40807223796397823, 'recall': 0.34595892722386407, 'fmeasure': 0.3611101992159009}

BLEU Scores: (IR)
{'bleu-1': 0.26478328165266446, 'bleu-2': 0.16820100567404453, 'bleu-3': 0.11445992800934442, 'bleu-4': 0.10581516807223233, 'bleu': 0.11713333227503094, 'bleu-corp-1': 0.26478328165266446, 'bleu-corp-2': 0.16820100567404453, 'bleu-corp-3': 0.11445992800934442, 'bleu-corp-4': 0.10581516807223233, 'bleu-corp': 0.11713333227503094}

METEOR Scores: (IR)
{'meteor': 0.3593123128493796}

GLEU Scores: (IR)
{'gleu-1': 0.2793604415373462, 'gleu-2': 0.17020673012245857, 'gleu-3': 0.128122814125193, 'gleu-4': 0.10273248844020905, 'gleu': 0.18272353137861574, 'gleu-corp-1': 0.2793604415373462, 'gleu-corp-2': 0.17020673012245857, 'gleu-corp-3': 0.128122814125193, 'gleu-corp-4': 0.10273248844020905, 'gleu-corp': 0.18272353137861574}
