{'MODEL': 'Learningq_612_1e-5', 'NAME': '', 'LAST_EPOCH': 10, 'TRAIN_BATCH_SIZE': 9, 'VALID_BATCH_SIZE': 9, 'TEST_BATCH_SIZE': 12, 'QC_TRAIN_EPOCHS': 20, 'IR_TRAIN_EPOCHS': 20, 'VAL_EPOCHS': 1, 'LEARNING_RATE': 1e-05, 'MAX_SOURCE_TEXT_LENGTH': 612, 'MAX_TARGET_TEXT_LENGTH': 64, 'SEED': 42, 'QC_DATASETS': ['learning-q'], 'IR_DATASETS': [], 'DESC': 'Test', 'TYPE': 'QC'}

ROUGE Scores: (IR)
Rouge_1: {'precision': 0.20856225410303125, 'recall': 0.13381557270603026, 'fmeasure': 0.14192410088114346}
Rouge_2: {'precision': 0.042862534799721234, 'recall': 0.02382447592535725, 'fmeasure': 0.026361088476967918}
Rouge_L: {'precision': 0.18351343944604606, 'recall': 0.1149702765001505, 'fmeasure': 0.12281900204421003}

BLEU Scores: (IR)
{'bleu-1': 0.08137895483832348, 'bleu-2': 0.0138876872956344, 'bleu-3': 0.002021056089669895, 'bleu-4': 0.0011831117293249651, 'bleu': 0.001992322026032479, 'bleu-corp-1': 0.08137895483832348, 'bleu-corp-2': 0.0138876872956344, 'bleu-corp-3': 0.002021056089669895, 'bleu-corp-4': 0.0011831117293249651, 'bleu-corp': 0.001992322026032479}

METEOR Scores: (IR)
{'meteor': 0.1296810426749941}

GLEU Scores: (IR)
{'gleu-1': 0.10025794416145101, 'gleu-2': 0.016625748011421318, 'gleu-3': 0.00462242566033252, 'gleu-4': 0.0012112225082216458, 'gleu': 0.03405738186383355, 'gleu-corp-1': 0.10025794416145101, 'gleu-corp-2': 0.016625748011421318, 'gleu-corp-3': 0.00462242566033252, 'gleu-corp-4': 0.0012112225082216458, 'gleu-corp': 0.03405738186383355}
