{'MODEL': 'IR_small_1024_1e-4', 'NAME': '', 'LAST_EPOCH': 20, 'TRAIN_BATCH_SIZE': 9, 'VALID_BATCH_SIZE': 9, 'TEST_BATCH_SIZE': 10, 'QC_TRAIN_EPOCHS': 5, 'IR_TRAIN_EPOCHS': 5, 'VAL_EPOCHS': 1, 'LEARNING_RATE': 0.0001, 'MAX_SOURCE_TEXT_LENGTH': 1024, 'MAX_TARGET_TEXT_LENGTH': 64, 'SEED': 42, 'QC_DATASETS': [], 'IR_DATASETS': ['IR-small'], 'DESC': 'Test', 'TYPE': 'IR'}

ROUGE Scores: (IR)
Rouge_1: {'precision': 0.555955680963494, 'recall': 0.4588706440836352, 'fmeasure': 0.48676477100032833}
Rouge_2: {'precision': 0.3986455267235747, 'recall': 0.3301211576421154, 'fmeasure': 0.3495061693808192}
Rouge_L: {'precision': 0.527120726081075, 'recall': 0.43657838428939, 'fmeasure': 0.4626639241651124}

BLEU Scores: (IR)
{'bleu-1': 0.37047753482155077, 'bleu-2': 0.2840518627880763, 'bleu-3': 0.22169778569928633, 'bleu-4': 0.21237259530857508, 'bleu': 0.2273267987574623, 'bleu-corp-1': 0.37047753482155077, 'bleu-corp-2': 0.2840518627880763, 'bleu-corp-3': 0.22169778569928633, 'bleu-corp-4': 0.21237259530857508, 'bleu-corp': 0.2273267987574623}

METEOR Scores: (IR)
{'meteor': 0.45760116795536737}

GLEU Scores: (IR)
{'gleu-1': 0.3905836712059049, 'gleu-2': 0.28693150229741377, 'gleu-3': 0.2363924858393229, 'gleu-4': 0.2012255854620349, 'gleu': 0.292969954884596, 'gleu-corp-1': 0.3905836712059049, 'gleu-corp-2': 0.28693150229741377, 'gleu-corp-3': 0.2363924858393229, 'gleu-corp-4': 0.2012255854620349, 'gleu-corp': 0.292969954884596}
