{'MODEL': 'IR_small_512_1e-5', 'NAME': '', 'LAST_EPOCH': 20, 'TRAIN_BATCH_SIZE': 12, 'VALID_BATCH_SIZE': 12, 'TEST_BATCH_SIZE': 12, 'QC_TRAIN_EPOCHS': 25, 'IR_TRAIN_EPOCHS': 25, 'VAL_EPOCHS': 1, 'LEARNING_RATE': 0.0001, 'MAX_SOURCE_TEXT_LENGTH': 512, 'MAX_TARGET_TEXT_LENGTH': 64, 'SEED': 42, 'QC_DATASETS': [], 'IR_DATASETS': ['IR-small'], 'DESC': 'Test', 'TYPE': 'IR'}

ROUGE Scores: (IR)
Rouge_1: {'precision': 0.3379027725201005, 'recall': 0.277143958652848, 'fmeasure': 0.28755372374453797}
Rouge_2: {'precision': 0.14996173972609844, 'recall': 0.12374111944573843, 'fmeasure': 0.12718567225294267}
Rouge_L: {'precision': 0.3028982526546288, 'recall': 0.24760487750586324, 'fmeasure': 0.25710006709267974}

BLEU Scores: (IR)
{'bleu-1': 0.16911217179696886, 'bleu-2': 0.07896210497240161, 'bleu-3': 0.04078047437650182, 'bleu-4': 0.03770483096862813, 'bleu': 0.0426501112524476, 'bleu-corp-1': 0.16911217179696886, 'bleu-corp-2': 0.07896210497240161, 'bleu-corp-3': 0.04078047437650182, 'bleu-corp-4': 0.03770483096862813, 'bleu-corp': 0.0426501112524476}

METEOR Scores: (IR)
{'meteor': 0.2650675772250812}

GLEU Scores: (IR)
{'gleu-1': 0.18331317654404058, 'gleu-2': 0.08105886968343724, 'gleu-3': 0.05058393363972952, 'gleu-4': 0.03612754688122336, 'gleu': 0.09695482157281318, 'gleu-corp-1': 0.18331317654404058, 'gleu-corp-2': 0.08105886968343724, 'gleu-corp-3': 0.05058393363972952, 'gleu-corp-4': 0.03612754688122336, 'gleu-corp': 0.09695482157281318}
