{'MODEL': 'IR_small_512_1e-5', 'NAME': '', 'LAST_EPOCH': 25, 'TRAIN_BATCH_SIZE': 12, 'VALID_BATCH_SIZE': 12, 'TEST_BATCH_SIZE': 12, 'QC_TRAIN_EPOCHS': 25, 'IR_TRAIN_EPOCHS': 25, 'VAL_EPOCHS': 1, 'LEARNING_RATE': 0.0001, 'MAX_SOURCE_TEXT_LENGTH': 512, 'MAX_TARGET_TEXT_LENGTH': 64, 'SEED': 42, 'QC_DATASETS': [], 'IR_DATASETS': ['IR-small'], 'DESC': 'Test', 'TYPE': 'IR'}

ROUGE Scores: (IR)
Rouge_1: {'precision': 0.3324063683737261, 'recall': 0.3036125401276801, 'fmeasure': 0.2989132734211428}
Rouge_2: {'precision': 0.14774041282481518, 'recall': 0.1379230542388864, 'fmeasure': 0.13346178108377157}
Rouge_L: {'precision': 0.29521913278747725, 'recall': 0.26897018803438266, 'fmeasure': 0.26498204442244705}

BLEU Scores: (IR)
{'bleu-1': 0.18419795249185975, 'bleu-2': 0.08551508691273281, 'bleu-3': 0.04300351181451511, 'bleu-4': 0.04140433728239172, 'bleu': 0.04751323589712947, 'bleu-corp-1': 0.18419795249185975, 'bleu-corp-2': 0.08551508691273281, 'bleu-corp-3': 0.04300351181451511, 'bleu-corp-4': 0.04140433728239172, 'bleu-corp': 0.04751323589712947}

METEOR Scores: (IR)
{'meteor': 0.2828579164334739}

GLEU Scores: (IR)
{'gleu-1': 0.19686718129590877, 'gleu-2': 0.08740937109041182, 'gleu-3': 0.05470948811301211, 'gleu-4': 0.03984463419206066, 'gleu': 0.10394745892158716, 'gleu-corp-1': 0.19686718129590877, 'gleu-corp-2': 0.08740937109041182, 'gleu-corp-3': 0.05470948811301211, 'gleu-corp-4': 0.03984463419206066, 'gleu-corp': 0.10394745892158716}
