{'MODEL': 'Learningq_612_1e-4', 'TEST_BATCH_SIZE': 1, 'MAX_SOURCE_TEXT_LENGTH': 512, 'MAX_TARGET_TEXT_LENGTH': 64, 'QC_DATASETS': ['learning-q'], 'IR_DATASETS': ['IR-small'], 'TYPE': ''}

ROUGE Scores: (Test)
Rouge_1: {'precision': 0.15002684154186188, 'recall': 0.16428021870895884, 'fmeasure': 0.1392621529501492}
Rouge_2: {'precision': 0.015694497204362928, 'recall': 0.016257602014655582, 'fmeasure': 0.014977927838103306}
Rouge_L: {'precision': 0.11834573666551497, 'recall': 0.13148035573668215, 'fmeasure': 0.10987365267694245}

BLEU Scores: (Test)
{'bleu-1': 0.07577425374829665, 'bleu-2': 0.0025229556624946463, 'bleu-3': 1.68603311163232e-309, 'bleu-4': 1.515558453548475e-308, 'bleu': 2.0794585992929385e-156, 'bleu-corp-1': 0.07577425374829665, 'bleu-corp-2': 0.0025229556624946463, 'bleu-corp-3': 1.68603311163232e-309, 'bleu-corp-4': 1.515558453548475e-308, 'bleu-corp': 2.0794585992929385e-156}

METEOR Scores: (Test)
{'meteor': 0.11520445399609251}

GLEU Scores: (Test)
{'gleu-1': 0.08256485783940899, 'gleu-2': 0.002789993852555918, 'gleu-3': 0.0, 'gleu-4': 0.0, 'gleu': 0.023179293368613022, 'gleu-corp-1': 0.08256485783940899, 'gleu-corp-2': 0.002789993852555918, 'gleu-corp-3': 0.0, 'gleu-corp-4': 0.0, 'gleu-corp': 0.023179293368613022}
