{'MODEL': 'Learningq_612_1e-5_DocT5Query', 'TEST_BATCH_SIZE': 1, 'MAX_SOURCE_TEXT_LENGTH': 512, 'MAX_TARGET_TEXT_LENGTH': 64, 'QC_DATASETS': ['learning-q'], 'IR_DATASETS': ['IR-small'], 'TYPE': ''}

ROUGE Scores: (Test)
Rouge_1: {'precision': 0.24934211490815258, 'recall': 0.16740464245644762, 'fmeasure': 0.18642280963397279}
Rouge_2: {'precision': 0.05797054098940891, 'recall': 0.04383760596010144, 'fmeasure': 0.04490353737013556}
Rouge_L: {'precision': 0.2195353388749614, 'recall': 0.15142619819238204, 'fmeasure': 0.16677327441239537}

BLEU Scores: (Test)
{'bleu-1': 0.09281593324505767, 'bleu-2': 0.018222792703838107, 'bleu-3': 0.002061793309833591, 'bleu-4': 0.002358490566037736, 'bleu': 0.0046808330191890225, 'bleu-corp-1': 0.09281593324505767, 'bleu-corp-2': 0.018222792703838107, 'bleu-corp-3': 0.002061793309833591, 'bleu-corp-4': 0.002358490566037736, 'bleu-corp': 0.0046808330191890225}

METEOR Scores: (Test)
{'meteor': 0.136296617498746}

GLEU Scores: (Test)
{'gleu-1': 0.11037363749917961, 'gleu-2': 0.02071858855987602, 'gleu-3': 0.004918561522335107, 'gleu-4': 0.0023584905660377358, 'gleu': 0.038153585549902454, 'gleu-corp-1': 0.11037363749917961, 'gleu-corp-2': 0.02071858855987602, 'gleu-corp-3': 0.004918561522335107, 'gleu-corp-4': 0.0023584905660377358, 'gleu-corp': 0.038153585549902454}
